[
    {
        "ParameterKey": "StackName",
        "ParameterValue": "hub-customers-favorites-subscribe-favorites-new-cms"
    },
    {
        "ParameterKey": "S3Bucket",
        "ParameterValue": "hub-lambdas-stage"
    },
    {
        "ParameterKey": "VpcId",
        "ParameterValue": "vpc-5b812422"
    },
    {
        "ParameterKey": "SubnetIds",
        "ParameterValue": "subnet-ad3a9981,subnet-ef2db3a7"
    },
    {
        "ParameterKey": "KmsKeyArn",
        "ParameterValue": "arn:aws:kms:us-east-1:465554285551:key/051d9a17-c489-4ad5-9bdb-82ef3aefcfeb"
    },
    {
        "ParameterKey": "JwtKey",
        "ParameterValue": "AQICAHhaUnHS6+LTHTRyvyDDJDZnVwq/IFdnC8szPedtKZDmgwFfwAfW/0HTpUWLZGtsp0eOAAAAkjCBjwYJKoZIhvcNAQcGoIGBMH8CAQAwegYJKoZIhvcNAQcBMB4GCWCGSAFlAwQBLjARBAxVDZ/xQnpk55jvQeMCARCATerhoyhUEBg/P0BnVUIEXgciqmT1tTQITWoLXid9fT7Xf1jAATxJMz+T0R6eNSTwDTSzHT7NGkHHANr+AC9vTrNg2XR4Z0FRMRlSns4J"
    },
    {
        "ParameterKey": "AuthenticationIss",
        "ParameterValue": "AQICAHhaUnHS6+LTHTRyvyDDJDZnVwq/IFdnC8szPedtKZDmgwHwOUdfayZy16WxznYDN/z4AAAAZTBjBgkqhkiG9w0BBwagVjBUAgEAME8GCSqGSIb3DQEHATAeBglghkgBZQMEAS4wEQQMA7u6axs5NazhsetuAgEQgCLQ9MXKp48CIN9/sTBq6jV+8KwnjKHYJi9rlV/QREvBVLeG"
    },
    {
        "ParameterKey": "SplunkSource",
        "ParameterValue": "hub"
    },
    {
        "ParameterKey": "SplunkUrl",
        "ParameterValue": "https://http-inputs-davidsbridal.splunkcloud.com/services/collector/event"
    },
    {
        "ParameterKey": "SplunkToken",
        "ParameterValue": "27F4AEC6-B4A6-4D96-BD0D-74E8EA9848E7"
    },
    {
        "ParameterKey": "SplunkBucket",
        "ParameterValue": "hub-splunk-stage"
    },
    {
        "ParameterKey": "HubNavProxyRmaUrl",
        "ParameterValue": "http://dbdrswfmq01/navproxy/api/return"
    }
]
